{
	"info": {
		"_postman_id": "f5563fc3-adb0-40ad-9a36-ac0070a81403",
		"name": "jdbcTemplateCRUD",
		"schema": "https://schema.getpostman.com/json/collection/v2.0.0/collection.json",
		"_exporter_id": "26843211"
	},
	"item": [
		{
			"name": "http://localhost:8080/user",
			"request": {
				"method": "POST",
				"header": [],
				"body": {
					"mode": "raw",
					"raw": "{\n    \"id\":\"{{$randomInt}}\",\n    \"fname\":\"{{$randomFirstName}}\",\n    \"lname\": \"{{$randomLastName}}\",\n    \"email\":\"{{$randomEmail}}\"\n}",
					"options": {
						"raw": {
							"language": "json"
						}
					}
				},
				"url": "http://localhost:8080/user"
			},
			"response": []
		},
		{
			"name": "http://localhost:8080/user",
			"request": {
				"method": "PUT",
				"header": [],
				"body": {
					"mode": "raw",
					"raw": "{\n    \"id\": 315,\n    \"fname\": \"Reyna2\",\n    \"lname\": \"Kassulke\",\n    \"email\": \"Michel85@gmail.com\"\n}",
					"options": {
						"raw": {
							"language": "json"
						}
					}
				},
				"url": "http://localhost:8080/user"
			},
			"response": []
		},
		{
			"name": "http://localhost:8080/user/312",
			"request": {
				"method": "GET",
				"header": [],
				"url": "http://localhost:8080/user/312"
			},
			"response": []
		},
		{
			"name": "http://localhost:8080/users",
			"request": {
				"method": "GET",
				"header": [],
				"url": "http://localhost:8080/users"
			},
			"response": []
		},
		{
			"name": "http://localhost:8080/user/120",
			"request": {
				"method": "DELETE",
				"header": [],
				"url": "http://localhost:8080/user/120"
			},
			"response": []
		}
	]
}